{
  "project_info": {
    "project_number": "1065715420922",
    "firebase_url": "https://mortgage-magic-a8dd2.firebaseio.com",
    "project_id": "mortgage-magic-a8dd2",
    "storage_bucket": "mortgage-magic-a8dd2.appspot.com"
  },
  "client": [
    {
      "client_info": {
        "mobilesdk_app_id": "1:1065715420922:android:7c325feaa5c0c7aae84343",
        "android_client_info": {
          "package_name": "uk.co.mortgagemagic"
        }
      },
      "oauth_client": [
        {
          "client_id": "1065715420922-am4lc5kqnofldup06jcvc5l138edfb9i.apps.googleusercontent.com",
          "client_type": 1,
          "android_info": {
            "package_name": "uk.co.mortgagemagic",
            "certificate_hash": "a5c82a13cc5d64405e90efb85e7aa941b6e6fdcf"
          }
        },
        {
          "client_id": "1065715420922-gg4h6vmq6hsmkl8fth433gbjptb9dd7v.apps.googleusercontent.com",
          "client_type": 1,
          "android_info": {
            "package_name": "uk.co.mortgagemagic",
            "certificate_hash": "15ee77cf46362b65ccb36d411472ed911ead8e24"
          }
        },
        {
          "client_id": "1065715420922-3aae0f3klolj6npuabbt7ecfmnp863du.apps.googleusercontent.com",
          "client_type": 3
        }
      ],
      "api_key": [
        {
          "current_key": "AIzaSyC-uTllYeKE21dsr99MiRJjTBxu6rowFBc"
        }
      ],
      "services": {
        "appinvite_service": {
          "other_platform_oauth_client": [
            {
              "client_id": "1065715420922-3aae0f3klolj6npuabbt7ecfmnp863du.apps.googleusercontent.com",
              "client_type": 3
            },
            {
              "client_id": "1065715420922-79t0rkbr77ld9ci964cv2hikcvsbanhs.apps.googleusercontent.com",
              "client_type": 2,
              "ios_info": {
                "bundle_id": "uk.co.mortgagemagic"
              }
            }
          ]
        }
      }
    }
  ],
  "configuration_version": "1"
}